<svg width="111" height="32" viewBox="0 0 111 32" fill="none" xmlns="http://www.w3.org/2000/svg">
<g clip-path="url(#clip0_609_13525)">
<path d="M25.2657 23.1674L17.8329 15.8793L25.2657 8.54297L32.7469 15.8793L25.2657 23.1674Z" fill="#B5B5B5"/>
<path d="M8.42109 23.1674L0.988205 15.8793L8.42109 8.54297L15.854 15.8793L8.42109 23.1674Z" fill="#D8D8D8"/>
<path d="M16.8675 14.914L9.3864 7.57763L16.8675 0.289551L24.3004 7.57763L16.8675 14.914Z" fill="#AAAAAA"/>
<path d="M16.8675 31.4692L9.3864 24.1328L16.8675 16.8447L24.3004 24.1328L16.8675 31.4692Z" fill="#CECECE"/>
<path d="M36.5598 9.60449H35.3049V22.057H36.5598V9.60449Z" fill="#959595"/>
<path d="M44.5236 22.2985C40.9037 22.2985 37.863 19.4508 37.863 15.8792C37.863 12.2593 40.8072 9.41162 44.4754 9.41162C46.406 9.41162 48.2401 10.2321 49.495 11.6318C49.8328 11.9697 50.1224 12.3558 50.3155 12.7902H48.9158C47.9505 11.3422 46.2612 10.5217 44.5236 10.5217C41.6277 10.5217 39.1662 13.0315 39.1662 15.8792C39.1662 18.6786 41.676 21.1884 44.5236 21.1884C46.3577 21.1884 47.9022 20.2231 48.9641 18.8234H50.3638C49.2054 20.8988 46.9852 22.2985 44.5236 22.2985Z" fill="#959595"/>
<path d="M59.8238 19.9333C59.0998 21.4295 57.6518 22.25 55.9626 22.25C54.2733 22.25 52.8253 21.4295 52.1013 19.9333C51.7635 19.1611 51.6187 18.1957 51.6187 17.327V9.60449H52.8736V17.3752C52.8736 18.0509 52.9701 19.0163 53.308 19.6437C53.8871 20.6573 54.7559 21.1882 55.9143 21.1882C57.0727 21.1882 57.9897 20.6573 58.5206 19.6437C58.8585 19.0163 58.955 18.0509 58.955 17.3752V9.60449H60.2099V17.3752C60.3065 18.1957 60.2099 19.2093 59.8238 19.9333Z" fill="#959595"/>
<path d="M72.5176 22.057L70.6835 17.8579H64.7951L62.961 22.057H61.6579L67.0636 9.60449H68.5116L73.9656 22.057H72.5176ZM67.7393 11.0042L65.2295 16.7478H70.1526L67.7393 11.0042Z" fill="#959595"/>
<path d="M82.9912 21.0434C81.8328 21.7674 80.1918 22.057 78.8404 22.057H75.1239V9.60449H78.8404C80.1918 9.60449 81.8328 9.89409 82.9912 10.6181C84.777 11.7282 85.8871 13.7553 85.8871 15.8307C85.8871 17.9062 84.777 19.885 82.9912 21.0434ZM82.4603 11.6799C81.2054 10.8111 79.7574 10.7146 78.2612 10.7146H76.4271V20.8986H78.5508C80.047 20.8986 81.3984 20.8021 82.6533 19.885C83.9565 18.968 84.6322 17.327 84.6322 15.7825C84.6322 14.1897 83.8117 12.597 82.4603 11.6799Z" fill="#959595"/>
<path d="M92.0169 17.4235L95.5885 22.057H93.9957L89.7001 16.4099C90.4724 16.4099 91.679 16.4582 92.4512 16.2169C93.7061 15.8307 94.5267 14.8654 94.5267 13.5623C94.5267 12.597 93.9957 11.6316 93.127 11.149C92.3547 10.7146 91.5342 10.6663 90.6654 10.6663H88.4452V22.0087H87.1903V9.60449H90.4241C91.3894 9.60449 92.6443 9.65276 93.5614 10.0871C95.0093 10.7629 95.8298 12.1143 95.8298 13.6588C95.7816 15.7342 94.1405 17.2787 92.0169 17.4235Z" fill="#959595"/>
<path d="M107.751 22.057L105.917 17.8579H100.029L98.1948 22.057H96.8917L102.297 9.60449H103.745L109.199 22.057H107.751ZM102.973 11.0042L100.512 16.7478H105.435L102.973 11.0042Z" fill="#959595"/>
</g>
<defs>
<clipPath id="clip0_609_13525">
<rect width="109.466" height="32" fill="white" transform="translate(0.602081)"/>
</clipPath>
</defs>
</svg>
