<svg width="41" height="40" viewBox="0 0 41 40" fill="none" xmlns="http://www.w3.org/2000/svg">
<rect x="0.64624" width="40" height="40" rx="12" fill="#FFE7BA"/>
<path d="M28.3129 8C29.4622 8 30.5644 8.45655 31.377 9.2692C32.1897 10.0819 32.6462 11.1841 32.6462 12.3333V20.0293C31.2535 19.1371 29.6336 18.6641 27.9796 18.6667C25.5196 18.6667 23.2996 19.692 21.7222 21.3373H16.3089L16.1756 21.3467C15.9362 21.3796 15.7169 21.4981 15.5581 21.6802C15.3993 21.8623 15.3119 22.0957 15.3119 22.3373C15.3119 22.5789 15.3993 22.8124 15.5581 22.9945C15.7169 23.1766 15.9362 23.2951 16.1756 23.328L16.3089 23.3373H20.2876C19.6453 24.5713 19.3109 25.9422 19.3129 27.3333C19.3103 28.9874 19.7833 30.6072 20.6756 32H12.9796C11.8303 32 10.7281 31.5435 9.91542 30.7308C9.10277 29.9181 8.64622 28.8159 8.64622 27.6667V16.496C9.08623 16.6512 9.55638 16.7016 10.0193 16.6432C10.4822 16.5848 10.9251 16.4193 11.3128 16.1597C11.7005 15.9002 12.0223 15.5537 12.2527 15.148C12.4831 14.7423 12.6157 14.2884 12.6399 13.8225C12.6641 13.3565 12.5793 12.8914 12.3922 12.4639C12.2051 12.0365 11.921 11.6586 11.5622 11.3602C11.2035 11.0619 10.7802 10.8513 10.3258 10.7453C9.87145 10.6392 9.39862 10.6406 8.94489 10.7493C9.26355 9.9389 9.81885 9.2432 10.5385 8.75283C11.2581 8.26245 12.1087 8.00012 12.9796 8H28.3129ZM24.9822 16.6613H16.3102L16.1742 16.6707C15.9349 16.7036 15.7155 16.8221 15.5568 17.0042C15.398 17.1863 15.3105 17.4197 15.3105 17.6613C15.3105 17.9029 15.398 18.1364 15.5568 18.3185C15.7155 18.5006 15.9349 18.6191 16.1742 18.652L16.3102 18.6613H24.9822L25.1182 18.652C25.3692 18.6175 25.5978 18.4889 25.7576 18.2924C25.9175 18.0959 25.9969 17.846 25.9796 17.5932C25.9623 17.3404 25.8497 17.1036 25.6646 16.9306C25.4795 16.7577 25.2356 16.6614 24.9822 16.6613ZM9.64622 12C10.0882 12 10.5122 12.1756 10.8247 12.4882C11.1373 12.8007 11.3129 13.2246 11.3129 13.6667C11.3129 14.1087 11.1373 14.5326 10.8247 14.8452C10.5122 15.1577 10.0882 15.3333 9.64622 15.3333C9.20419 15.3333 8.78027 15.1577 8.46771 14.8452C8.15515 14.5326 7.97955 14.1087 7.97955 13.6667C7.97955 13.2246 8.15515 12.8007 8.46771 12.4882C8.78027 12.1756 9.20419 12 9.64622 12ZM35.3129 27.3333C35.3129 25.3884 34.5403 23.5232 33.165 22.1479C31.7897 20.7726 29.9245 20 27.9796 20C26.0346 20 24.1694 20.7726 22.7941 22.1479C21.4188 23.5232 20.6462 25.3884 20.6462 27.3333C20.6462 29.2783 21.4188 31.1435 22.7941 32.5188C24.1694 33.8941 26.0346 34.6667 27.9796 34.6667C29.9245 34.6667 31.7897 33.8941 33.165 32.5188C34.5403 31.1435 35.3129 29.2783 35.3129 27.3333ZM28.6462 28L28.6476 31.3373C28.6476 31.5141 28.5773 31.6837 28.4523 31.8087C28.3273 31.9338 28.1577 32.004 27.9809 32.004C27.8041 32.004 27.6345 31.9338 27.5095 31.8087C27.3845 31.6837 27.3142 31.5141 27.3142 31.3373V28H23.9742C23.7974 28 23.6278 27.9298 23.5028 27.8047C23.3778 27.6797 23.3076 27.5101 23.3076 27.3333C23.3076 27.1565 23.3778 26.987 23.5028 26.8619C23.6278 26.7369 23.7974 26.6667 23.9742 26.6667H27.3129V23.3333C27.3129 23.1565 27.3831 22.987 27.5081 22.8619C27.6332 22.7369 27.8027 22.6667 27.9796 22.6667C28.1564 22.6667 28.3259 22.7369 28.451 22.8619C28.576 22.987 28.6462 23.1565 28.6462 23.3333V26.6667H31.9756C32.1524 26.6667 32.3219 26.7369 32.447 26.8619C32.572 26.987 32.6422 27.1565 32.6422 27.3333C32.6422 27.5101 32.572 27.6797 32.447 27.8047C32.3219 27.9298 32.1524 28 31.9756 28H28.6462Z" fill="url(#paint0_linear_226_4317)"/>
<defs>
<linearGradient id="paint0_linear_226_4317" x1="35.3129" y1="1.33333" x2="8.88128" y2="40.2787" gradientUnits="userSpaceOnUse">
<stop stop-color="#FF764A"/>
<stop offset="1" stop-color="#FFD698"/>
</linearGradient>
</defs>
</svg>
